{
  "license": "cc-by",
  "specStatus": "base",
  "otherLinks": [
    {
      "key": "Senaste version",
      "data": [
        {
          "value": "https://lankadedata.se/spec/utegym",
          "href": "https://lankadedata.se/spec/utegym"
        }
      ]
    },
    {
      "key": "Denna version",
      "data": [
        {
          "value": "https://lankadedata.se/spec/utegym/1.0",
          "href": "https://lankadedata.se/spec/utegym/1.0"
        }
      ]
    },
    {
      "key": "Källkod till specifikation",
      "data": [
        {
          "value": "https://gitlab.com/lankadedata/spec/utegym/",
          "href": "https://gitlab.com/lankadedata/spec/utegym/"
        }
      ]
    },
    {
      "key": "Ändringslogg",
      "data": [
        {
          "value": "https://gitlab.com/lankadedata/spec/utegym/-/blob/master/CHANGELOG.md",
          "href": "https://gitlab.com/lankadedata/spec/utegym/-/blob/master/CHANGELOG.md"
        }
      ]
    }
  ],
  "title": "Specifikation för utegym",
  "subtitle": "Information om utegym, särskilt anordnade",
  "lint": false,
  "publishDate": "2021-06-18",
  "logos": [
    {
      "src": "assets/vgr2.jpg",
      "alt": "Logga för Västra Götalandsregionen",
      "url": "https://www.vgregion.se/",
      "width": 235
    },
    {
      "src": "https://lankadedata.se/spec/assets/metasolutions.png",
      "alt": "Logga för MetaSolutions AB",
      "url": "https://entryscape.com/",
      "width": 92
    }
  ],
  "editors": [
    {
      "name": "Alex Akkila Forsberg",
      "url": "mailto:alex@metasolutions.se",
      "company": "MetaSolutions AB",
      "companyURL": "https://entryscape.com"
    }
  ],
  "authors": [
    {
      "name": "Mattias Axell",
      "url": "mattias.axell@metasolutions.se",
      "company": "MetaSolutions AB",
      "companyURL": "https://entryscape.com"
    },
    {
      "name": "Eric Hjelmestam",
      "url": "mailto:eric@metasolutions.se",
      "company": "MetaSolutions AB",
      "companyURL": "https://entryscape.com"
    },
    {
      "name": "Fredrik Eriksson",
      "url": "mailto:fredrik.c.eriksson@vgregion.se",
      "company": "Västra Götalandsregionen",
      "companyURL": "https://vgregion.se"
    },
  ],
  "shortName": "utegym",
  "format": "markdown"
}
